Complexity Measures — complexity_measures • economiccomplexity
…
Mariani M, Vidmer A, Medo M, Zhang Y (2015).
“Measuring economic complexity of countries and products: which metric to use?”
The European Physical Journal B, 88(11), 293.
doi: 10.1140/epjb/e2015-60298-7
.

    Examples

complexity_measures(
 rca = package_output_demo$revealed_comparative_advantage_matrix,
 tbl_output = TRUE
)
#> $economic_complexity_index
#> # A tibble: 80 x 2
#>    country                value
#>    <chr>                  <dbl>
#>  1 USA                39.6     
#>  2 Japan              39.2     
#>  3 Singapore           0.422   
#>  4 Lebanon             0.422   
#>  5 South Africa        0.422   
#>  6 China               0.000167
#>  7 Poland              0.000156
#>  8 Russian Federation  0.000156
#>  9 Serbia              0.000156
#> 10 TFYR of Macedonia   0.000156
#> # … with 70 more rows
…
#>    <chr>                                                    <dbl>
#>  1 8 Royalties and license fees                     10.9         
#>  2 6 Financial services                              0.0835      
#>  3 7 Computer and information services               0.00000450  
#>  4 9 Other business services                         0.00000401  
#>  5 5 Insurance services                              0.00000263  
#>  6 4 Construction services                           0.00000238  
#>  7 10 Personal, cultural, and recreational services  0.00000116  
#>  8 3 Communications services                         0.000000499 
#>  9 1 Transportation                                  0.000000488 
#> 10 11 Government services, n.i.e.                    0.000000417 
#> 11 2 Travel                                          0.0000000716
#> 
#> $diversity
#> # A tibble: 80 x 2
#>    country    value
#>    <chr>      <dbl>
#>  1 Albania        3
#>  2 Algeria        5
#>  3 Angola         1
#>  4 Argentina      5
#>  5 Armenia        6
#>  6 Aruba          1
#>  7 Australia      3
#>  8 Azerbaijan     2
#>  9 Bahamas        1
#> 10 Bangladesh     4
#> # … with 70 more rows
…
