…
    Examples

  complexity_measures_output$economic_complexity_index
#> # A tibble: 224 x 2
#>    country value
#>    <chr>   <dbl>
#>  1 jpn      2.27
#>  2 che      2.20
#>  3 deu      1.97
#>  4 bvt      1.91
#>  5 kor      1.82
#>  6 cze      1.74
#>  7 aut      1.73
#>  8 sgp      1.71
#>  9 swe      1.68
#> 10 svn      1.66
#> # … with 214 more rows
  complexity_measures_output$product_complexity_index
#> # A tibble: 1,222 x 2
#>    product value
#>    <chr>   <dbl>
#>  1 2812     2.68
#>  2 8457     2.25
#>  3 3705     2.20
#>  4 9012     2.19
#>  5 8420     2.17
#>  6 8113     2.16
#>  7 3818     2.00
#>  8 9017     1.96
#>  9 8475     1.95
#> 10 2920     1.91
#> # … with 1,212 more rows
  complexity_measures_output$diversity
#> # A tibble: 224 x 2
#>    country value
#>    <chr>   <dbl>
#>  1 afg        68
#>  2 ago        10
#>  3 aia        73
#>  4 alb       140
#>  5 and        85
#>  6 are       109
#>  7 arg       183
#>  8 arm        92
#>  9 asm        71
#> 10 atf        20
#> # … with 214 more rows
  complexity_measures_output$ubiquity
#> # A tibble: 1,222 x 2
#>    product value
#>    <chr>   <dbl>
#>  1 0101       20
#>  2 0102       42
#>  3 0103       16
#>  4 0104       25
#>  5 0105       34
#>  6 0106       55
#>  7 0201       28
#>  8 0202       23
#>  9 0203       15
#> 10 0204       27
#> # … with 1,212 more rows
…
