Complexity Measures — complexity • economiccomplexity
…
and the references therein.

    See also

    rca,

    Examples

complexity(ec_output_demo$rca_tbl)
#> $country_complexity
#> # A tibble: 158 x 2
#>    country value
#>    <chr>   <dbl>
#>  1 deu     28.8 
#>  2 fra     21.4 
#>  3 usa     14.1 
#>  4 nld     11.5 
#>  5 che     10.5 
#>  6 gbr      9.81
#>  7 ita      9.61
#>  8 swe      7.35
#>  9 aut      7.34
#> 10 jpn      7.27
#> # ... with 148 more rows
#> 
#> $product_complexity
#> # A tibble: 991 x 2
#>    product value
#>    <chr>   <dbl>
#>  1 7111     75.1
#>  2 2850     55.9
#>  3 8804     32.1
#>  4 9307     24.7
#>  5 9112     20.2
#>  6 3505     19.6
#>  7 3813     14.3
#>  8 7507     12.6
#>  9 2927     12.1
#> 10 2810     11.8
#> # ... with 981 more rows
#> 
#> $diversity
#> # A tibble: 158 x 2
#>    country value
#>    <chr>   <dbl>
#>  1 afg        28
#>  2 ago        52
#>  3 alb        32
#>  4 and        23
#>  5 ant        23
#>  6 are         1
#>  7 arg        83
#>  8 aus        81
#>  9 aut       290
#> 10 bdi        16
#> # ... with 148 more rows
#> 
#> $ubiquity
#> # A tibble: 991 x 2
#>    product value
#>    <chr>   <dbl>
#>  1 0101       19
#>  2 0102       26
#>  3 0103       16
#>  4 0104       19
#>  5 0105       11
#>  6 0106       35
#>  7 0201       21
#>  8 0203       15
#>  9 0204        6
#> 10 0205       12
#> # ... with 981 more rows
…
