…
    Examples

countries_position_output$proximity_distance
#> # A tibble: 273,728 x 3
#>    country product value
#>    <chr>   <chr>   <dbl>
#>  1 afg     0101    0.953
#>  2 ago     0101    0.995
#>  3 aia     0101    0.939
#>  4 alb     0101    0.924
#>  5 and     0101    0.911
#>  6 are     0101    0.914
#>  7 arg     0101    0.795
#>  8 arm     0101    0.934
#>  9 asm     0101    0.935
#> 10 atf     0101    0.990
#> # … with 273,718 more rows
countries_position_output$complexity_outlook
#> # A tibble: 224 x 2
#>    product value
#>    <chr>   <dbl>
#>  1 chn     55.5 
#>  2 ita     37.0 
#>  3 cze     32.8 
#>  4 deu     32.6 
#>  5 aut     23.1 
#>  6 jpn     21.9 
#>  7 swe     21.3 
#>  8 svn     16.8 
#>  9 tun      9.60
#> 10 hkg      9.46
#> # … with 214 more rows
countries_position_output$complexity_outlook_gain
#> # A tibble: 273,728 x 3
#>    country product     value
#>    <chr>   <chr>       <dbl>
#>  1 afg     0101    -0.00444 
#>  2 ago     0101     0.000381
#>  3 aia     0101    -0.00285 
#>  4 alb     0101     0.0687  
#>  5 and     0101    -0.0606  
#>  6 are     0101    -0.00665 
#>  7 arg     0101    -0.154   
#>  8 arm     0101     0.00639 
#>  9 asm     0101    -0.0212  
#> 10 atf     0101     0.00746 
#> # … with 273,718 more rows
…
