Countries position — countries_position • economiccomplexity
…
  product1 = "product",
  value1 = "value",
  product_proximity =
   package_output_demo$proximity_matrix$product_proximity,
  product21 = "from",
  product22 = "to",
  value2 = "value",
  product_complexity_index =
   package_output_demo$complexity_measures_numeric$product_complexity_index,
  product3 = "product",
  value3 = "value",
  tbl_output = TRUE
)
#> $proximity_distance
#> # A tibble: 880 x 3
#>    country    product          value
#>    <chr>      <chr>            <dbl>
#>  1 Albania    1 Transportation 0.674
#>  2 Algeria    1 Transportation 0.395
#>  3 Angola     1 Transportation 0.893
#>  4 Argentina  1 Transportation 0.449
#>  5 Armenia    1 Transportation 0.392
#>  6 Aruba      1 Transportation 0.893
#>  7 Australia  1 Transportation 0.674
#>  8 Azerbaijan 1 Transportation 0.639
#>  9 Bahamas    1 Transportation 0.893
#> 10 Bangladesh 1 Transportation 0.580
#> # … with 870 more rows
#> 
#> $complexity_outlook
#> # A tibble: 80 x 2
#>    product        value
#>    <chr>          <dbl>
#>  1 Singapore     0.177 
#>  2 South Africa  0.0653
#>  3 Lebanon      -0.0497
#>  4 Seychelles   -0.0971
#>  5 Philippines  -0.163 
#>  6 Morocco      -0.170 
#>  7 Tunisia      -0.170 
#>  8 Angola       -0.173 
#>  9 Aruba        -0.173 
#> 10 Bahamas      -0.173 
#> # … with 70 more rows
#> 
#> $complexity_outlook_gain
#> # A tibble: 880 x 3
#>    country    product             value
#>    <chr>      <chr>               <dbl>
#>  1 Albania    1 Transportation -0.0213 
#>  2 Algeria    1 Transportation -0.00188
#>  3 Angola     1 Transportation -0.00691
#>  4 Argentina  1 Transportation -0.0127 
#>  5 Armenia    1 Transportation -0.0405 
#>  6 Aruba      1 Transportation -0.00691
#>  7 Australia  1 Transportation -0.0213 
#>  8 Azerbaijan 1 Transportation  0.0207 
#>  9 Bahamas    1 Transportation -0.00691
#> 10 Bangladesh 1 Transportation -0.0221 
#> # … with 870 more rows
…
