Countries position — ec_countries_position • economiccomplexity
…
  c1 = "country",
  p1 = "product",
  v1 = "value",
  pp = ec_output_demo$proximity_tbl$proximity_p,
  p21 = "from",
  p22 = "to",
  v2 = "value",
  pci = ec_output_demo$complexity_measures_tbl$complexity_index_p,
  p3 = "product",
  v3 = "value",
  tbl = TRUE
)
#> Joining, by = c("from", "to")
#> $proximity_distance
#> # A tibble: 156,578 x 3
#>    country product value
#>    <chr>   <chr>   <dbl>
#>  1 afg     0101    0.960
#>  2 ago     0101    0.948
#>  3 alb     0101    0.955
#>  4 and     0101    0.974
#>  5 ant     0101    0.980
#>  6 are     0101    1    
#>  7 arg     0101    0.861
#>  8 aus     0101    0.896
#>  9 aut     0101    0.609
#> 10 bdi     0101    0.989
#> # ... with 156,568 more rows
#> 
#> $complexity_outlook
#> # A tibble: 158 x 2
#>    product value
#>    <chr>   <dbl>
#>  1 nld      268.
#>  2 bel      265.
#>  3 ita      259.
#>  4 fra      254.
#>  5 gbr      244.
#>  6 che      242.
#>  7 jpn      239.
#>  8 aut      236.
#>  9 swe      217.
#> 10 csk      214.
#> # ... with 148 more rows
#> 
#> $complexity_outlook_gain
#> # A tibble: 156,578 x 3
#>    country product       value
#>    <chr>   <chr>         <dbl>
#>  1 afg     0101    -0.0000323 
#>  2 ago     0101    -0.0000131 
#>  3 alb     0101    -0.0000418 
#>  4 and     0101    -0.0000139 
#>  5 ant     0101    -0.00000536
#>  6 are     0101     0.00000165
#>  7 arg     0101    -0.000154  
#>  8 aus     0101    -0.0000690 
#>  9 aut     0101    -0.000299  
#> 10 bdi     0101     0.00000546
#> # ... with 156,568 more rows
…
