Networks — ec_networks • economiccomplexity
…
Hausmann R, Hidalgo C, Bustos S, Coscia M, Simoes A, Yildirim M (2014).
The atlas of economic complexity: Mapping paths to prosperity.
MIT Press.
doi: 10.7551/mitpress/9647.001.0001
.

    Examples

ec_networks(
  pc = ec_output_demo$proximity_tbl$proximity_c,
  pp = ec_output_demo$proximity_tbl$proximity_p,
  tbl = TRUE
)
#> $network_c
#> # A tibble: 497 x 3
#>    from  to    value
#>    <chr> <chr> <dbl>
#>  1 khm   cmr   0.2  
#>  2 khm   ecu   0.2  
#>  3 khm   gtm   0.225
#>  4 khm   idn   0.214
#>  5 khm   mdg   0.204
#>  6 khm   mli   0.325
#>  7 khm   nic   0.2  
#>  8 khm   pak   0.241
#>  9 khm   sdn   0.2  
#> 10 khm   nga   0.267
#> # ... with 487 more rows
#> 
#> $network_p
#> # A tibble: 56,160 x 3
#>    from  to    value
#>    <chr> <chr> <dbl>
#>  1 0711  9614  0.467
#>  2 0711  0103  0.4  
#>  3 0711  0203  0.467
#>  4 0711  0207  0.4  
#>  5 0711  0210  0.4  
#>  6 0711  0405  0.4  
#>  7 0711  0407  0.5  
#>  8 0711  0505  0.467
#>  9 0711  0701  0.529
#> 10 0711  0702  0.467
#> # ... with 56,150 more rows
…
