Example outputs of the functions within the package — ec_output_demo • economiccomplexity
…
    Examples

ec_output_demo$rca_tbl
#> # A tibble: 44,435 x 3
#>    country product value
#>    <chr>   <chr>   <dbl>
#>  1 afg     0106        0
#>  2 afg     0405        0
#>  3 afg     0407        0
#>  4 afg     0501        1
#>  5 afg     0504        1
#>  6 afg     0703        0
#>  7 afg     0712        0
#>  8 afg     0714        1
#>  9 afg     0801        1
#> 10 afg     0802        1
#> # … with 44,425 more rows
ec_output_demo$complexity_measures_tbl$complexity_index_c
#> # A tibble: 99 x 2
#>    country value
#>    <chr>   <dbl>
#>  1 deu     19.5 
#>  2 fra     12.0 
#>  3 usa     11.6 
#>  4 gbr      8.43
#>  5 che      6.92
#>  6 nld      6.63
#>  7 ita      6.55
#>  8 swe      4.85
#>  9 bel      4.32
#> 10 aut      4.29
#> # … with 89 more rows
…
