Productivity Levels — ec_productivity_levels • economiccomplexity
…
  data = ec_trade_1962,
  c1 = "country",
  p1 = "product",
  v1 = "value",
  gdp = ec_gdp_pc_1962,
  c2 = "country",
  v2 = "value",
  tbl = TRUE
)
#> Warning: Joining data and gdp resulted in a table with less
#>     reporting countries than those in data.
#> Warning: Joining data and gdp resulted in a table with less
#>     reporting countries than those in gdp.
#> $productivity_level_country
#> # A tibble: 89 x 2
#>    name  value
#>    <chr> <dbl>
#>  1 afg   1044.
#>  2 arg   1097.
#>  3 aus   1556.
#>  4 aut   1035.
#>  5 bdi   1010.
#>  6 bel    981.
#>  7 ben   1036.
#>  8 bfa    939.
#>  9 bhs   1037.
#> 10 blz   1747.
#> # … with 79 more rows
#> 
#> $productivity_level_product
#> # A tibble: 991 x 2
#>    name  value
#>    <chr> <dbl>
#>  1 0101   816.
#>  2 0102   359.
#>  3 0103   217.
#>  4 0104   184.
#>  5 0105   223.
#>  6 0106   441.
#>  7 0201   909.
#>  8 0203  1313.
#>  9 0204  2141.
#> 10 0205   993.
#> # … with 981 more rows
…
