Proximity — ec_proximity • economiccomplexity
…
    Examples

ec_proximity(
  rca = ec_output_demo$rca_tbl,
  d = ec_output_demo$complexity_measures_tbl$diversity,
  u = ec_output_demo$complexity_measures_tbl$ubiquity,
  tbl = TRUE
)
#> $proximity_c
#> # A tibble: 4,484 x 3
#>    from  to     value
#>    <chr> <chr>  <dbl>
#>  1 alb   ago   0.0769
#>  2 are   ago   0.0192
#>  3 arg   ago   0.133 
#>  4 aus   ago   0.0741
#>  5 aut   ago   0.0241
#>  6 bel   ago   0.0281
#>  7 bgr   ago   0.110 
#>  8 bol   ago   0.0385
#>  9 bra   ago   0.2   
#> 10 can   ago   0.0845
#> # … with 4,474 more rows
#> 
#> $proximity_p
#> # A tibble: 408,869 x 3
#>    from  to    value
#>    <chr> <chr> <dbl>
#>  1 0102  0101  0.316
#>  2 0103  0101  0.308
#>  3 0104  0101  0.385
#>  4 0106  0101  0.148
#>  5 0201  0101  0.353
#>  6 0203  0101  0.462
#>  7 0204  0101  0.154
#>  8 0205  0101  0.385
#>  9 0206  0101  0.385
#> 10 0207  0101  0.429
#> # … with 408,859 more rows
…
