Networks — networks • economiccomplexity
…
    Examples

networks(
 proximity_countries =
  package_output_demo$proximity_matrix$proximity_countries,
 proximity_products =
  package_output_demo$proximity_matrix$proximity_products,
 tbl_output = TRUE
)
#> $network_countries
#> # A tibble: 3,063 x 3
#>    from       to         value
#>    <chr>      <chr>      <dbl>
#>  1 Cabo Verde Namibia    1    
#>  2 Cabo Verde Algeria    0.2  
#>  3 Cabo Verde Angola     0.333
#>  4 Cabo Verde Anguilla   0.333
#>  5 Cabo Verde Argentina  0.25 
#>  6 Cabo Verde Armenia    0.5  
#>  7 Cabo Verde Aruba      0.333
#>  8 Cabo Verde Australia  0.667
#>  9 Cabo Verde Azerbaijan 0.333
#> 10 Cabo Verde Bahamas    0.333
#> # … with 3,053 more rows
…
