Example outputs of all functions within the package — package_output_demo • economiccomplexity
…
    Examples

package_output_demo$proximity_tibble$proximity_countries
#> # A tibble: 3,199 x 3
#>    from       to      value
#>    <chr>      <chr>   <dbl>
#>  1 Algeria    Albania 0.2  
#>  2 Angola     Albania 0.333
#>  3 Anguilla   Albania 0.333
#>  4 Argentina  Albania 0.25 
#>  5 Armenia    Albania 0.5  
#>  6 Aruba      Albania 0.333
#>  7 Australia  Albania 0.667
#>  8 Azerbaijan Albania 0.333
#>  9 Bahamas    Albania 0.333
#> 10 Bangladesh Albania 0.667
#> # … with 3,189 more rows
package_output_demo$proximity_tibble$proximity_products
#> # A tibble: 50 x 3
#>    from                                             to                value
#>    <chr>                                            <chr>             <dbl>
#>  1 10 Personal, cultural, and recreational services 1 Transportation 0.318 
#>  2 11 Government services, n.i.e.                   1 Transportation 0.543 
#>  3 2 Travel                                         1 Transportation 0.422 
#>  4 3 Communications services                        1 Transportation 0.545 
#>  5 4 Construction services                          1 Transportation 0.364 
#>  6 5 Insurance services                             1 Transportation 0.25  
#>  7 6 Financial services                             1 Transportation 0.0455
#>  8 7 Computer and information services              1 Transportation 0.205 
#>  9 8 Royalties and license fees                     1 Transportation 0.0227
#> 10 9 Other business services                        1 Transportation 0.227 
#> # … with 40 more rows
…
