Productivity Levels — productivity_levels • economiccomplexity
…
    Examples

productivity_levels(
 trade_data = services_trade_2016$services_trade_2016_matrix,
 country1 = "country",
 product1 = "product",
 value1 = "value",
 gdp_data = gdp_pc_2016$gdp_pc_2016_numeric,
 country2 = "country",
 value2 = "value",
 tbl_output = TRUE
)
#> $economies_productivity_level
#> # A tibble: 80 x 2
#>    name        value
#>    <chr>       <dbl>
#>  1 Albania    27854.
#>  2 Algeria    23580.
#>  3 Angola     11020.
#>  4 Argentina  11714.
#>  5 Armenia     7948.
#>  6 Aruba      10359.
#>  7 Australia  11903.
#>  8 Azerbaijan 12047.
#>  9 Bahamas    13998.
#> 10 Bangladesh 15313.
#> # … with 70 more rows
…
