Demo dataset to show the output of proximity matrices(). — proximity_matrices_output • economiccomplexity
…
    Examples

proximity_matrices_output
#> $countries_proximity
#> # A tibble: 23,481 x 3
#>    from  to     value
#>    <chr> <chr>  <dbl>
#>  1 ago   afg   0.0147
#>  2 aia   afg   0.0137
#>  3 alb   afg   0.136 
#>  4 and   afg   0.0706
#>  5 are   afg   0.0642
#>  6 arg   afg   0.115 
#>  7 arm   afg   0.152 
#>  8 asm   afg   0.0423
#>  9 atf   afg   0.0147
#> 10 atg   afg   0.0441
#> # … with 23,471 more rows
#> 
#> $products_proximity
#> # A tibble: 703,017 x 3
#>    from  to    value
#>    <chr> <chr> <dbl>
#>  1 0102  0101  0.190
#>  2 0103  0101  0.25 
#>  3 0104  0101  0.04 
#>  4 0105  0101  0.235
#>  5 0106  0101  0.109
#>  6 0201  0101  0.357
#>  7 0202  0101  0.261
#>  8 0203  0101  0.3  
#>  9 0204  0101  0.333
#> 10 0205  0101  0.4  
#> # … with 703,007 more rows
…
