Exported services in 2016 (matrix and tibble version) — services_trade_2016 • economiccomplexity
…
#> South Africa              574897312    109260517   1939937202
#> Sri Lanka                 858350439            .     41963358
#> Suriname                     755632        36309     51543263
#> Tajikistan                        .            .       570850
#> TFYR of Macedonia         106647413      7713684    301031019
#> Thailand                  522930000     69130000  10970620000
#> Trinidad and Tobago          381884      1720187     71884458
#> Tunisia                    55004425     22774906    267337339
#> Uganda                     30298816      1527255    198691988
#> United Rep. of Tanzania    30298816      1527255    198691988
#> Uruguay                   164795392     32547155   2239791510
#> USA                     24230000000 124453000000 137854000000
#> Zambia                            .            .      4962965
services_trade_2016$services_trade_2016_tibble
#> # A tibble: 736 x 3
#>    country    product               value
#>    <chr>      <chr>                 <dbl>
#>  1 Albania    1 Transportation  200490000
#>  2 Algeria    1 Transportation  672372922
#>  3 Angola     1 Transportation   32634214
#>  4 Azerbaijan 1 Transportation 1095425000
#>  5 Argentina  1 Transportation 2175160000
#>  6 Australia  1 Transportation 4340600000
#>  7 Bahamas    1 Transportation   95553064
#>  8 Bangladesh 1 Transportation  412300000
#>  9 Armenia    1 Transportation  188458900
#> 10 Bhutan     1 Transportation 2962863685
#> # … with 726 more rows
…
