Dataset with world gdp and population in 2017 (or last reported values). — world_gdp_and_population_2017 • economiccomplexity
…
    gdp_current_usda numeric vector

    population_totala numeric vector

    gdp_pc_usda numeric vector

    Source

    The World Bank (obtained by using wbstats package)

    Examples

world_gdp_and_population_2017
#> # A tibble: 262 x 4
#>    reporter_iso gdp_current_usd population_total gdp_pc_usd
#>    <chr>                  <dbl>            <dbl>      <dbl>
#>  1 abw              2700558659.           105264     25655.
#>  2 afg             19543976895.         35530081       550.
#>  3 ago            122123822334.         29784193      4100.
#>  4 alb             13038538300.          2873457      4538.
#>  5 and              3012914131.            76965     39147.
#>  6 arb           2584531235434.        414491886      6235.
#>  7 are            382575085092.          9400145     40699.
#>  8 arg            637430331479.         44271041     14398.
#>  9 arm             11536590636.          2930450      3937.
#> 10 asm               634000000             55641     11394.
#> # … with 252 more rows
…
